<svg width="1280" height="646" viewBox="0 0 1280 646" fill="none" xmlns="http://www.w3.org/2000/svg">
<path d="M1112.88 205.896C1171.34 -120.069 1454.51 19.5624 1493.34 97.3957L1385.34 903.896L-148 753.5C-184.333 741.667 -24.3356 547.244 352 610.5C587 650 617 404 794 442.5C907.812 467.256 1063.38 481.896 1112.88 205.896Z" fill="url(#paint0_linear)"/>
<defs>
<linearGradient id="paint0_linear" x1="942" y1="251" x2="1198.88" y2="683.896" gradientUnits="userSpaceOnUse">
<stop stop-color="#FC466B"/>
<stop offset="1" stop-color="#3F5EFB"/>
</linearGradient>
</defs>
</svg>
