<svg width="1280" height="351" viewBox="0 0 1280 351" fill="none" xmlns="http://www.w3.org/2000/svg">
<path d="M1078 161.5C1198.5 -70 1418.5 -12 1344 87L1265.53 525L-190 433C-217.409 424.072 9.4657 77.3994 214 242.5C450 433 582.513 206.377 731.5 225C867.5 242 980.316 349.166 1078 161.5Z" fill="url(#paint0_linear)"/>
<defs>
<linearGradient id="paint0_linear" x1="1090.5" y1="132" x2="1114.55" y2="444.496" gradientUnits="userSpaceOnUse">
<stop stop-color="#FC466B"/>
<stop offset="1" stop-color="#3F5EFB"/>
</linearGradient>
</defs>
</svg>
